[
  {
    "title_en": "Star Wars: The Clone Wars",
    "title_fr": "Star Wars: The Clone Wars",
    "summary_en": "After the Republic's victory on Christophsis, Anakin and his new apprentice Ahsoka Tano must rescue the kidnapped son of Jabba the Hutt. Political intrigue complicates their mission. ",
    "summary_fr": "Après la victoire de la République sur Christophsis, Anakin et son nouvel apprenti Ahsoka Tano doivent sauver le fils enlevé de Jabba le Hutt. Les intrigues politiques compliquent leur mission.",
    "aby_year_start": -22,
    "aby_year_end": null,
    "release_date": "2008-08-10"
  }
]